{
	"%REV": "0.1",
	"%VALIDITY": "Draft",
	"%COIL_ID": "HCMQXFBC08-CR000124",
	"%PREPARED_BY": "E. Takala", 
	"%VERIFIED_BY": "A. Milanese",
	"%APPROVED_BY": "S. Izquierdo Bermudez",
	"%PREPARED_DATE": "2021-02-12",
	"%VERIFIED_DATE": "2021-MM-DD",
	"%APPROVED_DATE": "2021-MM-DD",
	"%STRAND_TYPE": "RRP 108/127",
	"%EDMS_NUMBER": "2488343",
	"%CABLE_ID": "H16OC0344A",
	"%REFERENCE": "LHC-MQXFBC-FR-0863",
	"%CSV_files": "20210130_01.csv",
	"mapping_picture_file": "png/Default_mapping.png",
	"%REMARKS": ["The overshoot of dwell 2 is 8.6h that is 0.6h longer than allowed."]
}
